{
  "prepare_queue": {
    "installed": [],
    "uninstalled": []
  },
  "config_munge": {
    "files": {}
  },
  "installed_plugins": {
    "com-darryncampbell-cordova-plugin-intent": {
      "PACKAGE_NAME": "luke.launcher"
    },
    "com.bar.info": {
      "PACKAGE_NAME": "luke.launcher"
    },
    "com.lampa.startapp": {
      "PACKAGE_NAME": "luke.launcher"
    },
    "cordova-open-native-settings": {
      "PACKAGE_NAME": "luke.launcher"
    },
    "cordova-plugin-app-version": {
      "PACKAGE_NAME": "luke.launcher"
    },
    "cordova-plugin-camera": {
      "ANDROID_SUPPORT_V4_VERSION": "27.+",
      "PACKAGE_NAME": "luke.launcher"
    },
    "cordova-plugin-device": {
      "PACKAGE_NAME": "luke.launcher"
    },
    "cordova-plugin-nativestorage": {
      "PACKAGE_NAME": "luke.launcher"
    },
    "cordova-plugin-navigationbar-color": {
      "PACKAGE_NAME": "luke.launcher"
    },
    "cordova-plugin-proguard": {
      "PACKAGE_NAME": "luke.launcher"
    },
    "cordova-plugin-screen-orientation": {
      "PACKAGE_NAME": "luke.launcher"
    },
    "cordova-plugin-splashscreen": {
      "PACKAGE_NAME": "luke.launcher"
    },
    "cordova-plugin-statusbar": {
      "PACKAGE_NAME": "luke.launcher"
    },
    "cordova-plugin-whitelist": {
      "PACKAGE_NAME": "luke.launcher"
    },
    "cordova-plugin-x-toast": {
      "PACKAGE_NAME": "luke.launcher"
    },
    "cordova.plugins.diagnostic": {
      "ANDROID_SUPPORT_VERSION": "28.+",
      "PACKAGE_NAME": "luke.launcher"
    },
    "net.coconauts.notification-listener": {
      "PACKAGE_NAME": "luke.launcher"
    }
  },
  "dependent_plugins": {
    "com.luke.widget": {
      "PACKAGE_NAME": "luke.launcher"
    },
    "es6-promise-plugin": {
      "PACKAGE_NAME": "luke.launcher"
    }
  }
}
